:1050000021A351CD8D51CDE4503E01D3113EEFD3BC
:1050100017CDE4503E82D3113EEFD317CDEF502190
:105020000D52114254CD6051212752114454CD608C
:1050300051214152114654CD6051215B52114854C7
:10504000CD6051217552114A54CD6051218F5211BA
:105050004C54CD605121A952114E54CD605121C301
:10506000521156540614CD765121DD52117054065A
:1050700008CD765121F7521178540628CD7651216A
:105080001153116C54CD6051212B53CD8D513A6A7F
:10509000543D280A3D280B3D280C21C753DD21D75C
:1050A00053DD21F453DD210E54CD8D512145531193
:1050B000A454CD6051215F533AAC54B72804213435
:1050C00054DD213A54CD8D5121795311AE54CD6028
:1050D0005121AD5311B054CD605121935311B254AD
:1050E000CD6051C9F5DB17E680FE8028F8F1C93E96
:1050F000A0D316CDE4503EECD317CDE450C02142EE
:1051000054011000EDB2EDB2CDE450DB17E689C8D2
:10511000F5211951CD8D51F1C90A4572726F722076
:1051200072656164696E6720494445206964656EF3
:105130007469667920646174612E0A0D0001F0D8EB
:10514000CD55510118FCCD5551019CFFCD55510E47
:10515000F6CD5551483E2F3C0938FCED421213C99B
:10516000D5CD8D51E17E23666F119B51CD3D5121EF
:105170009B51CD8D51C9D5C5CD8D51C1E1237ECF78
:105180002B7ECF232305C810F4CD9451C97EB7C818
:10519000CF2318F93E0DCF3E0ACFC9202020202072
:1051A0000D0A0049444520546573742070726F677E
:1051B00072616D202D2056657273696F6E203031DB
:1051C0002E30302E30300D0A536F7274206F6620EF
:1051D0007472616E736C617465642066726F6D20A9
:1051E000542E2052454827732050617363616C2010
:1051F00070726F6772616D206279205065746520EE
:10520000436572766173696F2E0D0A0A0049442066
:10521000436F6E7374616E74202020202020202044
:10522000202020203A200046697865642043796C6C
:10523000696E6465727320202020202020203A208F
:105240000052656D6F7661626C652043796C696EA2
:1052500064657273202020203A20004E756D6265CF
:1052600072206F66206865616473202020202020F2
:1052700020203A20005068797320427974657320A9
:105280002F20547261636B20202020203A20005090
:10529000687973204279746573202F205365637495
:1052A0006F72202020203A2000536563746F727360
:1052B0002070657220747261636B20202020202092
:1052C0003A200053657269616C206E756D6265727B
:1052D000202020202020202020203A2000436F6E14
:1052E00074726F6C6C6572207265766973696F6E2B
:1052F000202020203A2000436F6E74726F6C6C6522
:1053000072206D6F64656C202020202020203A20C0
:10531000004275666665722073697A6520202020D8
:1053200020202020202020203A2000436F6E74721D
:105330006F6C6C65722074797065202020202020AD
:1053400020203A20004361706162696C697469656C
:10535000732028426974393D4C4241293A20004E5D
:10536000657874206974656D732076616C6964205A
:105370002020202020203A200043757272656E7430
:1053800020232043796C696E64657273202020208D
:105390003A200043757272656E7420232053656352
:1053A000746F72732020202020203A2000437572F1
:1053B00072656E742023204865616473202020206C
:1053C000202020203A20004E6F742073706563699E
:1053D000666965640D0A0053696E676C6520706FBD
:1053E00072742C2073696E676C6520736563746FCB
:1053F000720D0A004475616C20706F72742C206D00
:10540000756C746920736563746F720D0A0044755E
:10541000616C20706F72742C206D756C74692073D0
:105420006563746F722C206C6F6F6B2D61686561A2
:10543000640D0A005965730D0A004D617962650DAE
:105440000A00000000000000000000000000000052
:10545000000000000000000000000000000000004C
:10546000000000000000000000000000000000003C
:10547000000000000000000000000000000000002C
:10548000000000000000000000000000000000001C
:10549000000000000000000000000000000000000C
:1054A00000000000000000000000000000000000FC
:1054B00000000000000000000000000000000000EC
:1054C00000000000000000000000000000000000DC
:1054D00000000000000000000000000000000000CC
:1054E00000000000000000000000000000000000BC
:1054F00000000000000000000000000000000000AC
:10550000000000000000000000000000000000009B
:10551000000000000000000000000000000000008B
:10552000000000000000000000000000000000007B
:10553000000000000000000000000000000000006B
:10554000000000000000000000000000000000005B
:10555000000000000000000000000000000000004B
:10556000000000000000000000000000000000003B
:10557000000000000000000000000000000000002B
:10558000000000000000000000000000000000001B
:10559000000000000000000000000000000000000B
:1055A00000000000000000000000000000000000FB
:1055B00000000000000000000000000000000000EB
:1055C00000000000000000000000000000000000DB
:1055D00000000000000000000000000000000000CB
:1055E00000000000000000000000000000000000BB
:1055F00000000000000000000000000000000000AB
:10560000000000000000000000000000000000009A
:10561000000000000000000000000000000000008A
:10562000000000000000000000000000000000007A
:10563000000000000000000000000000000000006A
:10564000000000000000000000000000000000005A
:10565000000000000000000000000000000000004A
:10566000000000000000000000000000000000003A
:10567000000000000000000000000000000000002A
:10568000000000000000000000000000000000001A
:10569000000000000000000000000000000000000A
:1056A00000000000000000000000000000000000FA
:0456B00000000000F6
:00500001AF
