:18000000F3C3350100000000C3DF000000000000C3890000000000000E
:03001800C3FF0023
:180038003A00F3F5E5DB09E60220202A4040237DFE402003210040226F
:180050004040DB00773A44403C324440FE30E1F1FBED4D2A8540237D52
:18006800FE852003214540228540DB08773A89403C328940FE3038044F
:180080003E05D309E1F1FBED4DE53A8A40FE0020243A4440FE0028F93A
:180098002A4240237DFE402003210040F32242403A44403D324440FEFC
:1800B000057EE1FBC93A8940FE0028F92A8740237DFE85200321454011
:1800C800F32287403A89403D328940FE0530043E25D3097EE1FBC9F57B
:1800E0003A8A40FE00200E1801F5DB01E60228FAF1D300C9F5DB09E698
:1800F8000428FAF1D308C93A8A40FE0020063A4440FE00C93A8940FE87
:1801100000C9D7FE0A28FBFE1B20023E03C9FE0D280AFE0C2804FE2036
:180128003801CFC93E0DCF3E0ACF3E0DC931AE40210040224040224223
:1801400040214540228540228740AF324440328940AFD309D309D3094E
:180158003E40D3093E4FD3093E35D309DB08DB08DB08AFD300DB00ED8A
:1801700056FB3E00328A4021EE03CDFA013E01328A4021EE03CDFA01FD
:18018800CD0601280F3E00328A40CD8900FE20C288011814CD0C01282D
:1801A000E73E01328A40CD8900FE20C2880118003E0CCDE900CDF4008D
:1801B800CD0102219603CDFA0121C101E5CD01023E3ECFCD1201FE20FC
:1801D00038F9FE3ACA7802CD1E01FE3FCAD002E65FFE52CA0000FE4206
:1801E800CAB902FE47CA7202FE58CAD7023E3FCF18CB7EB7C8CF2318C8
:18020000F93E0DCF3E0ACFC9CD1201FE03C8FE2038F6C9CD080247CD4A
:1802180008024FCD52024F7B915F79C9210000CD6B02FE0D200E37C9C4
:18023000210000CD6B02FE0DC8FE2CC8FE0328EE29292929D630FE0ACD
:180248003802D607E60F856F18E178D630FE0A3802D6070707070747A5
:1802600079D630FE0A3802D60780C9CD1201CD1E01C9CD2402D8E5C991
:180278001E00CD130257CD130267CD13026FCD1302FE012009CD130291
:180290007BA7281E18157AA7280BCD130277233E2ECF1518F1CD1302B6
:1802A8007BA7C821DD03CDFA01C9211304CDFA01C921CA03CDFA01CD76
:1802C0000802C8E65FFE43CA0020FE57CA0320C9212404CDFA01C921DE
:1802D800E902CDFA01CD0802C8E65FFE59CA0A03C90D0A426F6F7420B5
:1802F00043502F4D3F000D0A4C6F6164696E672043502F4D2E2E2E0D0D
:180308000A0021F602CDFA01CD8B033E01D3113EEFD317CD8B033E8242
:18032000D3113EEFD31706193E00328B402100CF228C40CD8B033A8B72
:1803380040D3133E00D314D3153EE0D3163E01D312CD67031100022ADB
:180350008C4019228C403A8B403C328B4010D43A8A40F52AFEFFE9F5A2
:18036800C5E5CD8B033E20D317CD8B030E042A8C4006800000DB1077E5
:18038000230520F70D20F2E1C1F1C9F5DB17E680FE8028F8F1C941794C
:18039800757368612D5A383020426F6F7420524F4D20627920525736F1
:1803B00048524D0D0A54797065203F20666F72206F7074696F6E730D96
:1803C8000A000D0A436F6C64206F72205761726D203F0D0A004368653C
:1803E000636B73756D206572726F720D0A000C5072657373205B53504A
:1803F8004143455D20746F20616374697661746520636F6E736F6C6540
:180410000D0A004C6F616420636F6D706C6574652E0D0A000D0A5220F6
:18042800202020202020202020202D2052657365740D0A4243206F728F
:18044000204257202020202D20524F4D20424153494320436F6C6420EC
:180458006F72205761726D0D0A5820202020202020202020202D204296
:180470006F6F742043502F4D20286C6F61642024443030302D24464616
:1804880046462066726F6D206469736B290D0A3A6E6E6E6E6E6E2E2EC7
:1804A0002E20202D204C6F616420496E74656C2D4865782066696C65DB
:0A04B800207265636F72640D0A0084
:00000001FF
